...................
----------------------------------------------------------------------
Ran 19 tests in 0.640s

OK
Name             Stmts   Miss Branch BrPart  Cover   Missing
------------------------------------------------------------
Collatz.py          51      0     26      0   100%
TestCollatz.py      78      0      0      0   100%
------------------------------------------------------------
TOTAL              129      0     26      0   100%
